%!Adobe-FontList 1.20
%Locale:0x409

%BeginFont
Handler:DirectoryHandler
FontType:TrueType
FontName:HelveticaNeueLTW1G-Bd
FamilyName:Helvetica Neue LT W1G
StyleName:75 Bold
FullName:HelveticaNeueLT W1G 55 Roman Bold
MenuName:HelveticaNeueLT W1G 55 Roman
StyleBits:2
WritingScript:Roman
OutlineFileName:C:\Users\p12044\Documents\BLocal\MKt_Services\2019\20190410_FAC_Flyer\FAC_Flyer_V20190411 Folder\Document fonts\HelveticaNeueLTW1G-Bd.ttf
DataFormat:sfntData
hasSVG:no
VariableFontType:NonVariableFont
FileLength:100780
FileModTime:1516004205
WeightClass:700
WidthClass:5
AngleClass:0
NameArray:0,Mac,18,HelveticaNeueLT W1G 75 Bd
NameArray:0,Mac,4,Helvetica Neue LT W1G 75 Bold
NameArray:0,Win,1,HelveticaNeueLT W1G 55 Roman
NameArray:0,Win,16,Helvetica Neue LT W1G
%EndFont

%BeginFont
Handler:DirectoryHandler
FontType:TrueType
FontName:HelveticaNeueLTW1G-Lt
FamilyName:Helvetica Neue LT W1G
StyleName:45 Light
FullName:HelveticaNeueLT W1G 45 Lt
MenuName:HelveticaNeueLT W1G 45 Lt
StyleBits:0
WritingScript:Roman
OutlineFileName:C:\Users\p12044\Documents\BLocal\MKt_Services\2019\20190410_FAC_Flyer\FAC_Flyer_V20190411 Folder\Document fonts\HelveticaNeueLTW1G-Lt.ttf
DataFormat:sfntData
hasSVG:no
VariableFontType:NonVariableFont
FileLength:100956
FileModTime:1516004205
WeightClass:300
WidthClass:5
AngleClass:0
NameArray:0,Mac,18,HelveticaNeueLT W1G 45 Lt
NameArray:0,Mac,4,Helvetica Neue LT W1G 45 Light
NameArray:0,Win,1,HelveticaNeueLT W1G 45 Lt
NameArray:0,Win,16,Helvetica Neue LT W1G
%EndFont

%BeginFont
Handler:DirectoryHandler
FontType:TrueType
FontName:HelveticaNeueLTW1G-Md
FamilyName:Helvetica Neue LT W1G
StyleName:65 Medium
FullName:HelveticaNeueLT W1G 65 Md
MenuName:HelveticaNeueLT W1G 65 Md
StyleBits:0
WritingScript:Roman
OutlineFileName:C:\Users\p12044\Documents\BLocal\MKt_Services\2019\20190410_FAC_Flyer\FAC_Flyer_V20190411 Folder\Document fonts\HelveticaNeueLTW1G-Md.ttf
DataFormat:sfntData
hasSVG:no
VariableFontType:NonVariableFont
FileLength:103672
FileModTime:1516004205
WeightClass:500
WidthClass:5
AngleClass:0
NameArray:0,Mac,18,HelveticaNeueLT W1G 65 Md
NameArray:0,Mac,4,Helvetica Neue LT W1G 65 Medium
NameArray:0,Win,1,HelveticaNeueLT W1G 65 Md
NameArray:0,Win,16,Helvetica Neue LT W1G
%EndFont

